{

	"configuration":
	{
		"enable": true,
		"shortcuts": 
		{
			"Youtube": "Fiesta/Plugins/Google/Youtube"
		}
	},

	"system":
	{
		"alias": "ytb",
		"name": "Youtube Embedded Player",
		"description": "QR codes are a popular type of two-dimensional barcode. They are also known as hardlinks or physical world hyperlinks. QR Codes store up to 4,296 alphanumeric characters of arbitrary text. This text can be anything, for example URL, contact information, a telephone number, even a poem! QR codes can be read by an optical device with the appropriate software. Such devices range from dedicated QR code readers to mobile phones.",
		"keywords": ["Youtube", "Player"],
		"license": "MIT",
		"authors": [
			{
				"name": "Youssef Had",
				"email": "youssefhad2@gmail.com"
			}
		],
		"version": "1.0.0",
		"autoload": {
			"file": "ini.php"
		},
		"panel": 
		{
			"color": "#5b1c79"
		},
		"core": 
		{
			"views": "/views"
		}
	}

	

}
